b'{"code":200,"meta":{"pagination":{"total":3037,"pages":152,"page":2,"limit":20}},"data":[{"id":3064,"name":"Sarvin Mehrotra","email":"mehrotra_sarvin@kemmer.net","gender":"male","status":"active"},{"id":3063,"name":"Anang Khatri","email":"khatri_anang@torp-erdman.biz","gender":"male","status":"active"},{"id":3062,"name":"Dhanpati Tandon","email":"tandon_dhanpati@parisian.io","gender":"female","status":"inactive"},{"id":3059,"name":"Dipankar Sinha","email":"dipankar_sinha@effertz.org","gender":"male","status":"active"},{"id":3057,"name":"Bhadrak Mahajan","email":"mahajan_bhadrak@heller-dickinson.name","gender":"female","status":"inactive"},{"id":3054,"name":"Ekadant Rana","email":"rana_ekadant@macgyver.biz","gender":"male","status":"inactive"},{"id":3053,"name":"Gauraang Iyer","email":"iyer_gauraang@mohr.name","gender":"female","status":"active"},{"id":3051,"name":"Sen. Chandra Somayaji","email":"sen_somayaji_chandra@auer-dubuque.net","gender":"male","status":"inactive"},{"id":3049,"name":"Kali Varrier","email":"kali_varrier@wilderman.info","gender":"male","status":"inactive"},{"id":3048,"name":"Bala Gupta","email":"bala_gupta@cassin.co","gender":"male","status":"active"},{"id":3047,"name":"Ujjwal Mahajan","email":"ujjwal_mahajan@dietrich.co","gender":"male","status":"active"},{"id":3046,"name":"Chanakya Sinha","email":"chanakya_sinha@wiza-marvin.com","gender":"female","status":"inactive"},{"id":3045,"name":"Aasa Shukla","email":"shukla_aasa@bayer-ohara.org","gender":"male","status":"inactive"},{"id":3044,"name":"Gauraang Somayaji","email":"somayaji_gauraang@koepp.io","gender":"male","status":"active"},{"id":3043,"name":"Anjaneya Pothuvaal","email":"anjaneya_pothuvaal@beer.org","gender":"male","status":"inactive"},{"id":3042,"name":"Manikya Chattopadhyay","email":"manikya_chattopadhyay@torphy.info","gender":"male","status":"active"},{"id":3041,"name":"Sanya Varma","email":"sanya_varma@shields.net","gender":"female","status":"inactive"},{"id":3040,"name":"Aadinath Kaur","email":"aadinath_kaur@heaney-halvorson.biz","gender":"male","status":"active"},{"id":3039,"name":"Kalpana Embranthiri","email":"kalpana_embranthiri@osinski.com","gender":"male","status":"active"},{"id":3038,"name":"Prof. Vaishvi Singh","email":"singh_vaishvi_prof@witting.co","gender":"male","status":"inactive"}]}'
[2]
Url for page2 is viewed successfully
