b'{"code":200,"meta":{"pagination":{"total":3051,"pages":153,"page":2,"limit":20}},"data":[{"id":3072,"name":"Swarnalata Joshi","email":"swarnalata_joshi@parker.com","gender":"female","status":"active"},{"id":3071,"name":"Dhanapati Sharma","email":"dhanapati_sharma@runte-denesik.co","gender":"female","status":"inactive"},{"id":3070,"name":"Lakshmidhar Bhattathiri","email":"lakshmidhar_bhattathiri@mcglynn.org","gender":"female","status":"active"},{"id":3069,"name":"Tapan Agarwal PhD","email":"phd_tapan_agarwal@bogan.net","gender":"male","status":"active"},{"id":3068,"name":"Nirbhay Achari","email":"nirbhay_achari@corkery.info","gender":"female","status":"active"},{"id":3067,"name":"Nawal Mishra","email":"nawal_mishra@klein.biz","gender":"male","status":"active"},{"id":3066,"name":"Priya Khanna","email":"khanna_priya@stiedemann-kessler.co","gender":"female","status":"active"},{"id":3065,"name":"Shridevi Sethi","email":"shridevi_sethi@langworth-kulas.com","gender":"male","status":"active"},{"id":3064,"name":"Sarvin Mehrotra","email":"mehrotra_sarvin@kemmer.net","gender":"male","status":"active"},{"id":3063,"name":"Anang Khatri","email":"khatri_anang@torp-erdman.biz","gender":"male","status":"active"},{"id":3062,"name":"Dhanpati Tandon","email":"tandon_dhanpati@parisian.io","gender":"female","status":"inactive"},{"id":3059,"name":"Dipankar Sinha","email":"dipankar_sinha@effertz.org","gender":"male","status":"active"},{"id":3058,"name":"Girindra Agarwal","email":"girindra_agarwal@roob.co","gender":"male","status":"inactive"},{"id":3057,"name":"Bhadrak Mahajan","email":"mahajan_bhadrak@heller-dickinson.name","gender":"female","status":"inactive"},{"id":3056,"name":"Chandramauli Pillai","email":"pillai_chandramauli@sipes.net","gender":"male","status":"inactive"},{"id":3055,"name":"Tara Tandon IV","email":"tara_tandon_iv@welch.com","gender":"male","status":"active"},{"id":3054,"name":"Ekadant Rana","email":"rana_ekadant@macgyver.biz","gender":"male","status":"inactive"},{"id":3053,"name":"Gauraang Iyer","email":"iyer_gauraang@mohr.name","gender":"female","status":"active"},{"id":3051,"name":"Sen. Chandra Somayaji","email":"sen_somayaji_chandra@auer-dubuque.net","gender":"male","status":"inactive"},{"id":3050,"name":"Eshana Devar","email":"devar_eshana@schulist.biz","gender":"male","status":"active"}]}'
[2]
Url for page2 is viewed successfully
